{
  "basePath" : "/",
  "tags" : [ {
    "description" : "Rest service swagger documentation",
    "name" : "RestServiceVirtualController"
  } ],
  "host" : "www.googleapis.com",
  "paths" : {
    "/isbnLookup/invoke/books/v1/volumes/" : {
      "x-WM-BASE_PATH" : "/isbnLookup/invoke/books/v1/volumes/",
      "x-WM-TAG" : "RestServiceVirtualController",
      "get" : {
        "tags" : [ "RestServiceVirtualController" ],
        "x-WM-OPERATION_UID" : "84665fcd-fac1-4e9c-adb0-276713b9b9e4",
        "x-WM-METHOD_NAME" : "invoke",
        "x-WM-ACCESS_SPECIFIER" : "APP_ONLY",
        "parameters" : [ {
          "description" : "q",
          "name" : "q",
          "x-WM-EDITABLE" : false,
          "required" : false,
          "type" : "string",
          "in" : "query"
        }, {
          "name" : "country",
          "required" : false,
          "type" : "string",
          "in" : "query"
        } ],
        "consumes" : [ "text/xml" ],
        "responses" : {
          "200" : {
            "schema" : {
              "$ref" : "#/definitions/RootResponse"
            },
            "description" : "Success"
          }
        },
        "operationId" : "isbnLookup_RestServiceVirtualController-invoke"
      },
      "x-WM-RELATIVE_PATH" : ""
    }
  },
  "schemes" : [ "http", "https" ],
  "swagger" : "2.0",
  "definitions" : {
    "itemsEntryItem" : {
      "x-WM-FULLY_QUALIFIED_NAME" : "isbnLookup.itemsEntryItem",
      "x-WM-TAGS" : [ "RestServiceVirtualController" ],
      "properties" : {
        "saleInfo" : {
          "$ref" : "#/definitions/saleInfo"
        },
        "id" : {
          "type" : "string"
        },
        "searchInfo" : {
          "$ref" : "#/definitions/searchInfo"
        },
        "etag" : {
          "type" : "string"
        },
        "volumeInfo" : {
          "$ref" : "#/definitions/volumeInfo"
        },
        "selfLink" : {
          "type" : "string"
        },
        "accessInfo" : {
          "$ref" : "#/definitions/accessInfo"
        },
        "kind" : {
          "type" : "string"
        }
      }
    },
    "saleInfo" : {
      "x-WM-FULLY_QUALIFIED_NAME" : "isbnLookup.saleInfo",
      "x-WM-TAGS" : [ "RestServiceVirtualController" ],
      "properties" : {
        "retailPrice" : {
          "$ref" : "#/definitions/retailPrice"
        },
        "saleability" : {
          "type" : "string"
        },
        "listPrice" : {
          "$ref" : "#/definitions/listPrice"
        },
        "offers" : {
          "x-WM-IS_LIST" : true,
          "items" : {
            "$ref" : "#/definitions/offersEntryItem"
          },
          "type" : "array",
          "uniqueItems" : false
        },
        "buyLink" : {
          "type" : "string"
        },
        "isEbook" : {
          "type" : "boolean"
        },
        "country" : {
          "type" : "string"
        }
      }
    },
    "RootResponse" : {
      "x-WM-FULLY_QUALIFIED_NAME" : "isbnLookup.RootResponse",
      "x-WM-TAGS" : [ "RestServiceVirtualController" ],
      "properties" : {
        "items" : {
          "x-WM-IS_LIST" : true,
          "items" : {
            "$ref" : "#/definitions/itemsEntryItem"
          },
          "type" : "array",
          "uniqueItems" : false
        },
        "totalItems" : {
          "format" : "int32",
          "type" : "integer"
        },
        "kind" : {
          "type" : "string"
        }
      }
    },
    "retailPrice" : {
      "x-WM-FULLY_QUALIFIED_NAME" : "isbnLookup.retailPrice",
      "x-WM-TAGS" : [ "RestServiceVirtualController" ],
      "properties" : {
        "amount" : {
          "format" : "double",
          "type" : "number"
        },
        "amountInMicros" : {
          "format" : "int32",
          "type" : "integer"
        },
        "currencyCode" : {
          "type" : "string"
        }
      }
    },
    "searchInfo" : {
      "x-WM-FULLY_QUALIFIED_NAME" : "isbnLookup.searchInfo",
      "x-WM-TAGS" : [ "RestServiceVirtualController" ],
      "properties" : {
        "textSnippet" : {
          "type" : "string"
        }
      }
    },
    "listPrice" : {
      "x-WM-FULLY_QUALIFIED_NAME" : "isbnLookup.listPrice",
      "x-WM-TAGS" : [ "RestServiceVirtualController" ],
      "properties" : {
        "amount" : {
          "format" : "double",
          "type" : "number"
        },
        "amountInMicros" : {
          "format" : "int32",
          "type" : "integer"
        },
        "currencyCode" : {
          "type" : "string"
        }
      }
    },
    "readingModes" : {
      "x-WM-FULLY_QUALIFIED_NAME" : "isbnLookup.readingModes",
      "x-WM-TAGS" : [ "RestServiceVirtualController" ],
      "properties" : {
        "text" : {
          "type" : "boolean"
        },
        "image" : {
          "type" : "boolean"
        }
      }
    },
    "epub" : {
      "x-WM-FULLY_QUALIFIED_NAME" : "isbnLookup.epub",
      "x-WM-TAGS" : [ "RestServiceVirtualController" ],
      "properties" : {
        "acsTokenLink" : {
          "type" : "string"
        },
        "isAvailable" : {
          "type" : "boolean"
        }
      }
    },
    "pdf" : {
      "x-WM-FULLY_QUALIFIED_NAME" : "isbnLookup.pdf",
      "x-WM-TAGS" : [ "RestServiceVirtualController" ],
      "properties" : {
        "acsTokenLink" : {
          "type" : "string"
        },
        "isAvailable" : {
          "type" : "boolean"
        }
      }
    },
    "industryIdentifiersEntryItem" : {
      "x-WM-FULLY_QUALIFIED_NAME" : "isbnLookup.industryIdentifiersEntryItem",
      "x-WM-TAGS" : [ "RestServiceVirtualController" ],
      "properties" : {
        "type" : {
          "type" : "string"
        },
        "identifier" : {
          "type" : "string"
        }
      }
    },
    "volumeInfo" : {
      "x-WM-FULLY_QUALIFIED_NAME" : "isbnLookup.volumeInfo",
      "x-WM-TAGS" : [ "RestServiceVirtualController" ],
      "properties" : {
        "pageCount" : {
          "format" : "int32",
          "type" : "integer"
        },
        "averageRating" : {
          "format" : "int32",
          "type" : "integer"
        },
        "readingModes" : {
          "$ref" : "#/definitions/readingModes"
        },
        "infoLink" : {
          "type" : "string"
        },
        "printType" : {
          "type" : "string"
        },
        "allowAnonLogging" : {
          "type" : "boolean"
        },
        "publisher" : {
          "type" : "string"
        },
        "authors" : {
          "x-WM-IS_LIST" : true,
          "items" : {
            "type" : "string"
          },
          "type" : "array",
          "uniqueItems" : false
        },
        "canonicalVolumeLink" : {
          "type" : "string"
        },
        "title" : {
          "type" : "string"
        },
        "previewLink" : {
          "type" : "string"
        },
        "ratingsCount" : {
          "format" : "int32",
          "type" : "integer"
        },
        "description" : {
          "type" : "string"
        },
        "imageLinks" : {
          "$ref" : "#/definitions/imageLinks"
        },
        "subtitle" : {
          "type" : "string"
        },
        "contentVersion" : {
          "type" : "string"
        },
        "categories" : {
          "x-WM-IS_LIST" : true,
          "items" : {
            "type" : "string"
          },
          "type" : "array",
          "uniqueItems" : false
        },
        "language" : {
          "type" : "string"
        },
        "publishedDate" : {
          "type" : "string"
        },
        "industryIdentifiers" : {
          "x-WM-IS_LIST" : true,
          "items" : {
            "$ref" : "#/definitions/industryIdentifiersEntryItem"
          },
          "type" : "array",
          "uniqueItems" : false
        },
        "maturityRating" : {
          "type" : "string"
        }
      }
    },
    "imageLinks" : {
      "x-WM-FULLY_QUALIFIED_NAME" : "isbnLookup.imageLinks",
      "x-WM-TAGS" : [ "RestServiceVirtualController" ],
      "properties" : {
        "thumbnail" : {
          "type" : "string"
        },
        "smallThumbnail" : {
          "type" : "string"
        }
      }
    },
    "accessInfo" : {
      "x-WM-FULLY_QUALIFIED_NAME" : "isbnLookup.accessInfo",
      "x-WM-TAGS" : [ "RestServiceVirtualController" ],
      "properties" : {
        "webReaderLink" : {
          "type" : "string"
        },
        "textToSpeechPermission" : {
          "type" : "string"
        },
        "publicDomain" : {
          "type" : "boolean"
        },
        "viewability" : {
          "type" : "string"
        },
        "accessViewStatus" : {
          "type" : "string"
        },
        "pdf" : {
          "$ref" : "#/definitions/pdf"
        },
        "epub" : {
          "$ref" : "#/definitions/epub"
        },
        "embeddable" : {
          "type" : "boolean"
        },
        "quoteSharingAllowed" : {
          "type" : "boolean"
        },
        "country" : {
          "type" : "string"
        }
      }
    },
    "offersEntryItem" : {
      "x-WM-FULLY_QUALIFIED_NAME" : "isbnLookup.offersEntryItem",
      "x-WM-TAGS" : [ "RestServiceVirtualController" ],
      "properties" : {
        "retailPrice" : {
          "$ref" : "#/definitions/retailPrice"
        },
        "listPrice" : {
          "$ref" : "#/definitions/listPrice"
        },
        "finskyOfferType" : {
          "format" : "int32",
          "type" : "integer"
        }
      }
    }
  },
  "info" : {
    "x-WM-SERVICE_TYPE" : "RestService",
    "x-WM-API_ID" : "326c0b06-40d3-497f-9d45-6d230c3a080d",
    "x-WM-USE_PROXY_FOR_WEB" : true,
    "x-WM-SERVICE_ID" : "googleapis",
    "x-WM-USE_PROXY_FOR_MOBILE" : true,
    "version" : "2.0"
  }
}