{
  "moveBooksToMiscellaneousCategory" : {
    "name" : "moveBooksToMiscellaneousCategory",
    "description" : "update Book from Category \nwhen deleting Category",
    "version" : "V1",
    "queryString" : "UPDATE BOOK b  SET CATEGORYID =:miscellaneousCategory where CATEGORYID =:categoryId",
    "countQueryString" : null,
    "nativeSql" : true,
    "fetchCount" : false,
    "type" : "UPDATE",
    "parameters" : [ {
      "name" : "miscellaneousCategory",
      "type" : "integer",
      "list" : false,
      "variableType" : "PROMPT",
      "testValue" : null,
      "required" : false
    }, {
      "name" : "categoryId",
      "type" : "integer",
      "list" : false,
      "variableType" : "PROMPT",
      "testValue" : null,
      "required" : false
    } ],
    "request" : {
      "wrapped" : true,
      "typeRef" : "MoveBooksToMiscellaneousCategoryRequest",
      "method" : "PUT"
    },
    "response" : {
      "typeRef" : "java.lang.Integer",
      "returns" : "PRIMITIVE",
      "responseType" : "SINGLE"
    }
  },
  "searchCategory" : {
    "name" : "searchCategory",
    "description" : "No description is provided",
    "version" : "V1",
    "queryString" : "select * from CATEGORY where TENANTID=:TenantId and Name LIKE concat('%',:data,'%') order by CID desc",
    "countQueryString" : "select count(*) from (select * from CATEGORY where TENANTID=:TenantId and Name LIKE concat('%',:data,'%') order by CID desc) wmTempTable",
    "nativeSql" : true,
    "fetchCount" : true,
    "type" : "SELECT",
    "parameters" : [ {
      "name" : "TenantId",
      "type" : "string",
      "list" : false,
      "variableType" : "PROMPT",
      "testValue" : null,
      "required" : false
    }, {
      "name" : "data",
      "type" : "string",
      "list" : false,
      "variableType" : "PROMPT",
      "testValue" : null,
      "required" : false
    } ],
    "request" : {
      "wrapped" : false,
      "typeRef" : null,
      "method" : "GET"
    },
    "response" : {
      "typeRef" : "com.books.library.models.query.SearchCategoryResponse",
      "returns" : "CUSTOM",
      "responseType" : "PAGINATED",
      "properties" : [ {
        "name" : "NAME",
        "fieldName" : "name",
        "optional" : false,
        "fieldType" : {
          "type" : "PRIMITIVE",
          "typeRef" : "java.lang.String",
          "list" : false
        }
      }, {
        "name" : "IMAGE_URL",
        "fieldName" : "imageUrl",
        "optional" : false,
        "fieldType" : {
          "type" : "PRIMITIVE",
          "typeRef" : "java.lang.String",
          "list" : false
        }
      }, {
        "name" : "TENANTID",
        "fieldName" : "tenantid",
        "optional" : false,
        "fieldType" : {
          "type" : "PRIMITIVE",
          "typeRef" : "java.lang.String",
          "list" : false
        }
      }, {
        "name" : "CID",
        "fieldName" : "cid",
        "optional" : false,
        "fieldType" : {
          "type" : "PRIMITIVE",
          "typeRef" : "java.lang.Integer",
          "list" : false
        }
      } ]
    }
  },
  "UpdateCategoryDetails" : {
    "name" : "UpdateCategoryDetails",
    "description" : "No description is provided",
    "version" : "V1",
    "queryString" : "UPDATE BOOK SET CATEGORYID=:categoryid where ID =:bookid",
    "countQueryString" : null,
    "nativeSql" : true,
    "fetchCount" : false,
    "type" : "UPDATE",
    "parameters" : [ {
      "name" : "categoryid",
      "type" : "integer",
      "list" : false,
      "variableType" : "PROMPT",
      "testValue" : null,
      "required" : false
    }, {
      "name" : "bookid",
      "type" : "integer",
      "list" : false,
      "variableType" : "PROMPT",
      "testValue" : null,
      "required" : false
    } ],
    "request" : {
      "wrapped" : true,
      "typeRef" : "UpdateCategoryDetailsRequest",
      "method" : "PUT"
    },
    "response" : {
      "typeRef" : "java.lang.Integer",
      "returns" : "PRIMITIVE",
      "responseType" : "SINGLE"
    }
  },
  "updateBookStatus" : {
    "name" : "updateBookStatus",
    "description" : "Updates book status",
    "version" : "V1",
    "queryString" : "update BOOK set READ_STATUS = :readStatus where ID = :id",
    "countQueryString" : null,
    "nativeSql" : true,
    "fetchCount" : false,
    "type" : "UPDATE",
    "parameters" : [ {
      "name" : "readStatus",
      "type" : "integer",
      "list" : false,
      "variableType" : "PROMPT",
      "testValue" : null,
      "required" : false
    }, {
      "name" : "id",
      "type" : "integer",
      "list" : false,
      "variableType" : "PROMPT",
      "testValue" : null,
      "required" : false
    } ],
    "request" : {
      "wrapped" : true,
      "typeRef" : "UpdateBookStatusRequest",
      "method" : "PUT"
    },
    "response" : {
      "typeRef" : "java.lang.Integer",
      "returns" : "PRIMITIVE",
      "responseType" : "SINGLE"
    }
  },
  "updateBookRating" : {
    "name" : "updateBookRating",
    "description" : "No description is provided",
    "version" : "V1",
    "queryString" : "update BOOK set RATING=:rating where ID=:id",
    "countQueryString" : null,
    "nativeSql" : true,
    "fetchCount" : false,
    "type" : "UPDATE",
    "parameters" : [ {
      "name" : "rating",
      "type" : "integer",
      "list" : false,
      "variableType" : "PROMPT",
      "testValue" : null,
      "required" : false
    }, {
      "name" : "id",
      "type" : "integer",
      "list" : false,
      "variableType" : "PROMPT",
      "testValue" : null,
      "required" : false
    } ],
    "request" : {
      "wrapped" : true,
      "typeRef" : "UpdateBookRatingRequest",
      "method" : "PUT"
    },
    "response" : {
      "typeRef" : "java.lang.Integer",
      "returns" : "PRIMITIVE",
      "responseType" : "SINGLE"
    }
  },
  "checkIsbn" : {
    "name" : "checkIsbn",
    "description" : "No description is provided",
    "version" : "V1",
    "queryString" : "select ISBN from BOOK where ISBN =:ISBN AND TENANTID =:tenantid",
    "countQueryString" : "select count(*) from (select ISBN from BOOK where ISBN =:ISBN AND TENANTID =:tenantid) wmTempTable",
    "nativeSql" : true,
    "fetchCount" : true,
    "type" : "SELECT",
    "parameters" : [ {
      "name" : "ISBN",
      "type" : "string",
      "list" : false,
      "variableType" : "PROMPT",
      "testValue" : "9788177225419",
      "required" : false
    }, {
      "name" : "tenantid",
      "type" : "string",
      "list" : false,
      "variableType" : "PROMPT",
      "testValue" : "TRP0Xwi4wHzUW6zG",
      "required" : false
    } ],
    "request" : {
      "wrapped" : false,
      "typeRef" : null,
      "method" : "GET"
    },
    "response" : {
      "typeRef" : "com.books.library.models.query.CheckIsbnResponse",
      "returns" : "CUSTOM",
      "responseType" : "PAGINATED",
      "properties" : [ {
        "name" : "ISBN",
        "fieldName" : "isbn",
        "optional" : false,
        "fieldType" : {
          "type" : "PRIMITIVE",
          "typeRef" : "java.lang.String",
          "list" : false
        }
      } ]
    }
  },
  "updateCategoryPicture" : {
    "name" : "updateCategoryPicture",
    "description" : "No description is provided",
    "version" : "V1",
    "queryString" : "UPDATE CATEGORY SET IMAGE_URL =:imageURL where TENANTID=:tenantID AND CID=:categoryID",
    "countQueryString" : null,
    "nativeSql" : true,
    "fetchCount" : false,
    "type" : "UPDATE",
    "parameters" : [ {
      "name" : "imageURL",
      "type" : "string",
      "list" : false,
      "variableType" : "PROMPT",
      "testValue" : "http://4844w13o336ze0zhw1bllkwi.wpengine.netdna-cdn.com/wp-content/uploads/2012/02/better-blog-categories-400x225.jpg",
      "required" : false
    }, {
      "name" : "tenantID",
      "type" : "string",
      "list" : false,
      "variableType" : "PROMPT",
      "testValue" : "uIds5uPpVlQQXy0c",
      "required" : false
    }, {
      "name" : "categoryID",
      "type" : "integer",
      "list" : false,
      "variableType" : "PROMPT",
      "testValue" : "94",
      "required" : false
    } ],
    "request" : {
      "wrapped" : true,
      "typeRef" : "UpdateCategoryPictureRequest",
      "method" : "PUT"
    },
    "response" : {
      "typeRef" : "java.lang.Integer",
      "returns" : "PRIMITIVE",
      "responseType" : "SINGLE"
    }
  },
  "getCategoryList" : {
    "name" : "getCategoryList",
    "description" : "No description is provided",
    "version" : "V1",
    "queryString" : "select C.CID id, C.NAME name, (select COUNT(*) from BOOK where BOOK.CATEGORYID = C.CID) booksCount, (select IMAGE_URL from BOOK where BOOK.CATEGORYID = C.CID ORDER BY ID LIMIT 1) coverImage from CATEGORY C where C.TENANTID=:tenantId and LOWER(C.NAME) LIKE LOWER(concat('%',:search,'%')) order by id desc",
    "countQueryString" : "select count(*) from (select C.CID id, C.NAME name, (select COUNT(*) from BOOK where BOOK.CATEGORYID = C.CID) booksCount, (select IMAGE_URL from BOOK where BOOK.CATEGORYID = C.CID ORDER BY ID LIMIT 1) coverImage from CATEGORY C where C.TENANTID=:tenantId and LOWER(C.NAME) LIKE LOWER(concat('%',:search,'%')) order by id desc) wmTempTable",
    "nativeSql" : true,
    "fetchCount" : true,
    "type" : "SELECT",
    "parameters" : [ {
      "name" : "tenantId",
      "type" : "string",
      "list" : false,
      "variableType" : "PROMPT",
      "testValue" : "IG461Bxh57IoeSa0",
      "required" : false
    }, {
      "name" : "search",
      "type" : "string",
      "list" : false,
      "variableType" : "PROMPT",
      "testValue" : "o",
      "required" : false
    } ],
    "request" : {
      "wrapped" : false,
      "typeRef" : null,
      "method" : "GET"
    },
    "response" : {
      "typeRef" : "com.books.library.models.query.GetCategoryListResponse",
      "returns" : "CUSTOM",
      "responseType" : "PAGINATED",
      "properties" : [ {
        "name" : "id",
        "fieldName" : "id",
        "optional" : false,
        "fieldType" : {
          "type" : "PRIMITIVE",
          "typeRef" : "java.lang.Integer",
          "list" : false
        }
      }, {
        "name" : "name",
        "fieldName" : "name",
        "optional" : false,
        "fieldType" : {
          "type" : "PRIMITIVE",
          "typeRef" : "java.lang.String",
          "list" : false
        }
      }, {
        "name" : "coverImage",
        "fieldName" : "coverImage",
        "optional" : false,
        "fieldType" : {
          "type" : "PRIMITIVE",
          "typeRef" : "java.lang.String",
          "list" : false
        }
      }, {
        "name" : "booksCount",
        "fieldName" : "booksCount",
        "optional" : false,
        "fieldType" : {
          "type" : "PRIMITIVE",
          "typeRef" : "java.math.BigInteger",
          "list" : false
        }
      } ]
    }
  }
}